<?xml version="1.0" encoding="UTF-8" standalone="no"?>
<!-- Created with Inkscape (http://www.inkscape.org/) -->

<svg
   width="56.5"
   height="66.5"
   viewBox="0 0 14.94896 17.594793"
   version="1.1"
   id="svg5"
   xml:space="preserve"
   inkscape:export-filename="растр.svg"
   inkscape:export-xdpi="96"
   inkscape:export-ydpi="96"
   xmlns:inkscape="http://www.inkscape.org/namespaces/inkscape"
   xmlns:sodipodi="http://sodipodi.sourceforge.net/DTD/sodipodi-0.dtd"
   xmlns="http://www.w3.org/2000/svg"
   xmlns:svg="http://www.w3.org/2000/svg"><sodipodi:namedview
     id="namedview7"
     pagecolor="#ffffff"
     bordercolor="#000000"
     borderopacity="0.25"
     inkscape:showpageshadow="2"
     inkscape:pageopacity="0.0"
     inkscape:pagecheckerboard="0"
     inkscape:deskcolor="#d1d1d1"
     inkscape:document-units="mm"
     showgrid="false"
     inkscape:lockguides="false" /><defs
     id="defs2" /><g
     id="g522"
     transform="translate(-50.755124,-138.66948)"><path
       style="fill:#d0f4ed;stroke-width:0.0843662"
       d="m 58.041204,156.31354 c -0.02866,-0.0464 -0.10322,-0.0844 -0.165686,-0.0844 -0.06247,0 -0.430171,-0.18312 -0.817122,-0.40694 -0.87743,-0.50752 -2.088085,-1.1923 -2.642856,-1.49486 -0.231874,-0.12646 -0.630276,-0.35256 -0.885337,-0.50243 -0.255061,-0.14988 -0.767292,-0.43932 -1.13829,-0.6432 -0.370998,-0.20388 -0.750428,-0.4167 -0.843177,-0.47292 -0.09275,-0.0562 -0.244522,-0.13783 -0.337272,-0.18134 -0.196917,-0.0924 -0.601754,-0.43463 -0.514121,-0.43463 0.03286,0 0.408611,0.20213 0.835,0.44916 0.847779,0.49118 2.05326,1.17492 2.714561,1.53967 0.231874,0.12789 0.801019,0.44889 1.264767,0.71333 0.463747,0.26444 1.230686,0.69665 1.704307,0.96048 0.745947,0.41551 1.070803,0.64251 0.919496,0.64251 -0.02319,0 -0.06561,-0.038 -0.09427,-0.0844 z m 0.37943,0.0422 c 0,-0.0232 0.01897,-0.0422 0.04216,-0.0422 0.02319,0 0.04216,0.019 0.04216,0.0422 0,0.0232 -0.01897,0.0422 -0.04216,0.0422 -0.02319,0 -0.04216,-0.019 -0.04216,-0.0422 z m 0.356098,-0.0892 c 0.02581,-0.0258 1.635229,-1.00664 3.576479,-2.17956 l 3.529545,-2.13257 0.04329,-4.42589 0.04329,-4.42589 0.01866,4.38956 c 0.01026,2.41426 -0.01305,4.43962 -0.05179,4.5008 -0.07735,0.12213 -0.5674,0.42554 -4.441652,2.75005 -2.266485,1.35986 -2.920632,1.72655 -2.717815,1.5235 z M 50.789876,142.9368 c 0.182123,-0.15449 2.031092,-1.28955 4.724979,-2.90061 2.101098,-1.25655 2.316244,-1.37754 2.312728,-1.30057 -0.0027,0.0595 -6.909789,4.25041 -7.108952,4.31342 -0.05356,0.0169 -0.02151,-0.0336 0.07124,-0.11224 z m 14.882086,-0.11971 c -0.115937,-0.0845 -0.476395,-0.29668 -0.801019,-0.47157 -0.324623,-0.1749 -0.798911,-0.44019 -1.053972,-0.58952 -0.255061,-0.14934 -0.862149,-0.49302 -1.349084,-0.76373 -0.486935,-0.27071 -1.094023,-0.6122 -1.349085,-0.75887 -0.255061,-0.14667 -0.893935,-0.50965 -1.419719,-0.80661 -0.525785,-0.29697 -0.921367,-0.55149 -0.879071,-0.56561 0.0423,-0.0141 1.01952,0.50709 2.171611,1.15823 1.15209,0.65115 2.104196,1.1839 2.11579,1.1839 0.01159,0 0.309882,0.17094 0.66286,0.37987 0.352979,0.20892 0.658493,0.37986 0.678923,0.37986 0.108787,0 1.475719,0.86314 1.475719,0.93183 0,0.10479 -0.0041,0.10354 -0.252953,-0.0778 z m -7.16701,-4.06181 c 0,-0.0464 0.03794,-0.0844 0.08432,-0.0844 0.04637,0 0.08432,0.038 0.08432,0.0844 0,0.0464 -0.03794,0.0844 -0.08432,0.0844 -0.04637,0 -0.08432,-0.038 -0.08432,-0.0844 z"
       id="path536" /><path
       style="fill:#9ee9da;stroke-width:0.0843662"
       d="m 57.366662,155.8549 c -0.865054,-0.50293 -2.66197,-1.52177 -3.288393,-1.86451 -0.231874,-0.12686 -0.630276,-0.35207 -0.885337,-0.50047 -0.255061,-0.14839 -0.92851,-0.53295 -1.496554,-0.85456 -0.771313,-0.43671 -1.032828,-0.6267 -1.032892,-0.7504 -7.4e-5,-0.14091 0.03454,-0.12634 0.231787,0.0975 0.134781,0.15298 1.132185,0.76567 2.381977,1.46321 1.182557,0.66002 2.434675,1.36122 2.782486,1.55822 0.347811,0.19701 0.983356,0.55612 1.412323,0.79804 0.711828,0.40143 0.890548,0.52682 0.716701,0.50285 -0.03478,-0.005 -0.404725,-0.20726 -0.822098,-0.44992 z m 1.30985,0.39416 c 0.0016,-0.0342 1.486409,-0.95483 3.299558,-2.04589 3.94684,-2.375 4.025348,-2.42093 3.864527,-2.26086 -0.182741,0.18189 -7.167574,4.38088 -7.164085,4.30675 z m 7.141563,-13.12563 c -0.06196,-0.16164 -0.369928,-0.36473 -1.537356,-1.01381 -0.463748,-0.25784 -1.431294,-0.80091 -2.150103,-1.20684 -1.462499,-0.8259 -1.447488,-0.81746 -2.761407,-1.55306 -0.521717,-0.29208 -0.94558,-0.5738 -0.941919,-0.62605 0.0042,-0.0594 0.0226,-0.0555 0.04919,0.0105 0.02339,0.058 0.07942,0.10552 0.124507,0.10552 0.04509,0 0.430841,0.20212 0.85723,0.44916 0.426389,0.24704 1.126226,0.6459 1.555192,0.88635 1.782019,0.99891 2.373899,1.33287 3.01436,1.70082 0.370999,0.21314 0.855958,0.48135 1.077689,0.59603 0.553171,0.2861 0.851048,0.53571 0.804858,0.67444 -0.03007,0.0903 -0.05076,0.0851 -0.09224,-0.0231 z m -15.154676,0.002 c 0.02319,-0.0252 1.635765,-1.00673 3.583505,-2.18117 1.947741,-1.17443 3.567741,-2.17491 3.6,-2.22327 0.03226,-0.0484 0.08601,-0.0605 0.11945,-0.0271 0.03344,0.0335 0.04499,0.0744 0.02566,0.0909 -0.01932,0.0165 -1.627087,0.98941 -3.572809,2.16191 -3.165674,1.90766 -3.896563,2.33163 -3.75581,2.17865 z"
       id="path534" /><path
       style="fill:#75e1cc;stroke-width:0.0843662"
       d="m 58.061644,156.15197 c -0.367632,-0.23595 -0.38532,-0.28976 -0.04152,-0.12631 0.173906,0.0827 0.316192,0.18127 0.316192,0.2191 0,0.0854 0.0063,0.0875 -0.274672,-0.0928 z m 0.528916,0.10942 c -7.08e-4,-0.0519 0.558369,-0.4287 1.242396,-0.83735 0.684028,-0.40865 1.329059,-0.79791 1.433402,-0.86502 0.104344,-0.0671 0.189715,-0.10094 0.189715,-0.0752 0,0.0258 -0.616573,0.4168 -1.370163,0.86896 -0.75359,0.45215 -1.39804,0.86279 -1.432111,0.91252 -0.04332,0.0632 -0.06234,0.062 -0.06324,-0.004 z m -1.202819,-0.50262 c -0.315217,-0.17121 -0.29603,-0.24251 0.02108,-0.0783 0.139124,0.072 0.252953,0.14897 0.252953,0.171 0,0.0543 -0.0091,0.0513 -0.274033,-0.0927 z m -0.400509,-0.24717 c 0,-0.0232 0.01897,-0.0422 0.04216,-0.0422 0.02319,0 0.04216,0.019 0.04216,0.0422 0,0.0232 -0.01897,0.0422 -0.04216,0.0422 -0.02319,0 -0.04216,-0.019 -0.04216,-0.0422 z m -0.526905,-0.26945 c -0.220236,-0.12272 -0.387263,-0.23631 -0.371173,-0.25242 0.03388,-0.0339 0.81376,0.39224 0.81376,0.44467 0,0.0529 -0.0121,0.0476 -0.442587,-0.19225 z m -0.619437,-0.3767 c -0.03728,-0.0604 -0.02313,-0.0746 0.03718,-0.0372 0.0972,0.0601 0.130496,0.13468 0.06016,0.13468 -0.02045,0 -0.06426,-0.0438 -0.09735,-0.0974 z m -0.202743,-0.11358 c 0,-0.0232 0.01897,-0.0422 0.04216,-0.0422 0.02319,0 0.04216,0.019 0.04216,0.0422 0,0.0232 -0.01897,0.0422 -0.04216,0.0422 -0.02319,0 -0.04216,-0.019 -0.04216,-0.0422 z m -0.691688,-0.36361 c -0.310866,-0.17485 -0.595439,-0.35143 -0.632383,-0.39242 -0.07826,-0.0868 1.074236,0.53193 1.193379,0.6407 0.145712,0.13301 0.01063,0.0732 -0.560996,-0.24828 z m 6.593932,0.0319 c 0,-0.0232 0.07589,-0.0829 0.168636,-0.13256 0.09275,-0.0497 0.168635,-0.0714 0.168635,-0.0481 0,0.0232 -0.07589,0.0829 -0.168635,0.13256 -0.09275,0.0497 -0.168636,0.0714 -0.168636,0.0481 z m 0.421589,-0.25325 c 0,-0.0232 0.07589,-0.0829 0.168636,-0.13256 0.09275,-0.0497 0.168635,-0.0714 0.168635,-0.0481 0,0.0232 -0.07589,0.0829 -0.168635,0.13257 -0.09275,0.0497 -0.168636,0.0714 -0.168636,0.0481 z m -9.168456,-0.99333 c -0.752985,-0.4254 -1.356402,-0.78613 -1.340927,-0.80162 0.03016,-0.0302 2.57176,1.38382 2.705774,1.50534 0.167638,0.15202 -0.03576,0.0471 -1.364847,-0.70372 z m 9.590045,0.74009 c 0,-0.0232 0.07589,-0.0829 0.168635,-0.13256 0.09275,-0.0497 0.168636,-0.0714 0.168636,-0.0482 0,0.0232 -0.07589,0.0829 -0.168636,0.13256 -0.09275,0.0497 -0.168635,0.0714 -0.168635,0.0481 z m 0.421589,-0.25324 c 0,-0.0232 0.07589,-0.0829 0.168635,-0.13257 0.09275,-0.0497 0.168636,-0.0714 0.168636,-0.0481 0,0.0232 -0.07589,0.0829 -0.168636,0.13256 -0.09275,0.0497 -0.168635,0.0714 -0.168635,0.0481 z m 0.421589,-0.24908 c 0,-0.057 2.543615,-1.58582 2.579198,-1.55019 0.01564,0.0156 -0.397024,0.28294 -0.91703,0.59397 -0.520007,0.31102 -1.106725,0.66279 -1.303818,0.78169 -0.197093,0.11891 -0.35835,0.19745 -0.35835,0.17453 z m -12.279359,-1.36675 -0.283989,-0.30147 v -1.3496 c 0,-0.87824 0.02945,-1.33139 0.08432,-1.29744 0.05054,0.0313 0.08432,0.59456 0.08432,1.40617 v 1.35399 l 0.26187,0.2449 c 0.144029,0.1347 0.233881,0.24491 0.199671,0.24491 -0.03421,0 -0.189994,-0.13566 -0.346188,-0.30146 z m 14.872635,-6.70496 c -0.0345,-0.39464 -0.06296,-1.06974 -0.06324,-1.50022 l -5.05e-4,-0.78269 -0.370692,-0.23029 c -0.625552,-0.3886 -0.705045,-0.46198 -0.222256,-0.20517 0.759002,0.40374 0.769641,0.43304 0.742684,2.045 -0.02146,1.28328 -0.02811,1.33538 -0.08599,0.67337 z m -13.638904,-3.04658 c 0.857933,-0.51484 1.683193,-1.01173 1.833911,-1.1042 0.150718,-0.0925 0.274033,-0.14824 0.274033,-0.12392 0,0.057 -3.501941,2.16436 -3.596477,2.16425 -0.03924,-4e-5 0.6306,-0.4213 1.488533,-0.93613 z m 12.394712,0.0499 c 0,-0.0232 0.01897,-0.0422 0.04216,-0.0422 0.02319,0 0.04216,0.019 0.04216,0.0422 0,0.0232 -0.01897,0.0422 -0.04216,0.0422 -0.02319,0 -0.04216,-0.019 -0.04216,-0.0422 z m -0.61051,-0.32535 c -0.654347,-0.37586 -0.739465,-0.49166 -0.106191,-0.14447 0.460964,0.25272 0.725317,0.4316 0.628167,0.42506 -0.02087,-0.001 -0.255758,-0.12767 -0.521976,-0.28059 z m -0.738574,-0.43438 c 0,-0.0232 0.01897,-0.0422 0.04216,-0.0422 0.02319,0 0.04216,0.019 0.04216,0.0422 0,0.0232 -0.01897,0.0422 -0.04216,0.0422 -0.02319,0 -0.04216,-0.019 -0.04216,-0.0422 z m -0.653463,-0.34385 c -0.289842,-0.16447 -0.526986,-0.31862 -0.526986,-0.34255 0,-0.0467 0.91645,0.45303 1.049756,0.57244 0.14835,0.13288 0.007,0.0707 -0.52277,-0.22989 z m -8.199903,-0.24112 c 0,-0.0232 0.07589,-0.0829 0.168635,-0.13256 0.09275,-0.0497 0.168636,-0.0714 0.168636,-0.0481 0,0.0232 -0.07589,0.0829 -0.168636,0.13257 -0.09275,0.0497 -0.168635,0.0714 -0.168635,0.0481 z m 7.504281,-0.17477 c 0,-0.0232 0.01897,-0.0422 0.04216,-0.0422 0.02319,0 0.04216,0.019 0.04216,0.0422 0,0.0232 -0.01897,0.0422 -0.04216,0.0422 -0.02319,0 -0.04216,-0.019 -0.04216,-0.0422 z m -7.082692,-0.0785 c 0,-0.0232 0.07589,-0.0829 0.168635,-0.13256 0.09275,-0.0497 0.168636,-0.0714 0.168636,-0.0482 0,0.0232 -0.07589,0.0829 -0.168636,0.13256 -0.09275,0.0497 -0.168635,0.0714 -0.168635,0.0481 z m 6.3461,-0.317 c -0.335564,-0.19391 -0.597223,-0.36548 -0.581464,-0.38125 0.02789,-0.0279 1.111607,0.58411 1.211688,0.6843 0.108993,0.10912 -0.0456,0.0348 -0.630224,-0.30305 z m -5.924511,0.0638 c 0,-0.0232 0.07589,-0.0829 0.168635,-0.13257 0.09275,-0.0497 0.168636,-0.0714 0.168636,-0.0481 0,0.0232 -0.07589,0.0829 -0.168636,0.13256 -0.09275,0.0497 -0.168635,0.0714 -0.168635,0.0481 z m 0.421588,-0.25325 c 0,-0.0232 0.07589,-0.0829 0.168636,-0.13256 0.09275,-0.0497 0.168635,-0.0714 0.168635,-0.0481 0,0.0232 -0.07589,0.0829 -0.168635,0.13256 -0.09275,0.0497 -0.168636,0.0714 -0.168636,0.0482 z m 0.421589,-0.24409 c 0,-0.0256 0.426859,-0.30277 0.948575,-0.61596 0.521716,-0.31319 0.976451,-0.61001 1.010522,-0.6596 0.04303,-0.0626 0.06234,-0.0611 0.06324,0.005 7.1e-4,0.0523 -0.368654,0.31513 -0.820808,0.58404 -0.452154,0.2689 -0.90747,0.54386 -1.011813,0.61101 -0.104343,0.0671 -0.189715,0.10115 -0.189715,0.0756 z m 4.168766,-0.10416 c -0.15717,-0.12607 -0.156136,-0.12763 0.02604,-0.0392 0.104343,0.0506 0.189715,0.1097 0.189715,0.13128 0,0.0646 -0.04373,0.0459 -0.215758,-0.092 z m -0.56482,-0.28354 c -0.337074,-0.21634 -0.399272,-0.30403 -0.104758,-0.1477 0.353267,0.18751 0.520953,0.30756 0.421588,0.30181 -0.04637,-0.003 -0.188948,-0.072 -0.31683,-0.15411 z m -0.673903,-0.3932 c -0.315217,-0.1712 -0.29603,-0.24251 0.02108,-0.0783 0.139124,0.072 0.252953,0.14898 0.252953,0.171 0,0.0543 -0.0091,0.0513 -0.274033,-0.0927 z m -0.40051,-0.24717 c 0,-0.0232 0.01897,-0.0422 0.04216,-0.0422 0.02319,0 0.04216,0.019 0.04216,0.0422 0,0.0232 -0.01897,0.0422 -0.04216,0.0422 -0.02319,0 -0.04216,-0.019 -0.04216,-0.0422 z m -0.252953,-0.16883 c -0.0605,-0.073 -0.0687,-0.12662 -0.01934,-0.12662 0.04709,0 0.107461,0.057 0.134154,0.12662 0.06183,0.16132 0.01892,0.16132 -0.114809,0 z"
       id="path532" /><path
       style="fill:#59dbc1;stroke-width:0.0843662"
       d="m 58.434585,156.23954 c -0.0861,-0.0546 -0.07273,-0.0818 0.05693,-0.11577 0.120567,-0.0316 0.15651,-0.0106 0.124584,0.0727 -0.05242,0.13676 -0.03892,0.13356 -0.181514,0.0431 z M 58.16768,156.1025 c 0,-0.0232 0.01897,-0.0422 0.04216,-0.0422 0.02319,0 0.04216,0.019 0.04216,0.0422 0,0.0232 -0.01897,0.0422 -0.04216,0.0422 -0.02319,0 -0.04216,-0.019 -0.04216,-0.0422 z m -0.168635,-0.0844 c 0,-0.0232 0.01897,-0.0422 0.04216,-0.0422 0.02319,0 0.04216,0.019 0.04216,0.0422 0,0.0232 -0.01897,0.0422 -0.04216,0.0422 -0.02319,0 -0.04216,-0.019 -0.04216,-0.0422 z m 0.75886,0 c 0,-0.0232 0.01897,-0.0422 0.04216,-0.0422 0.02319,0 0.04216,0.019 0.04216,0.0422 0,0.0232 -0.01897,0.0422 -0.04216,0.0422 -0.02319,0 -0.04216,-0.019 -0.04216,-0.0422 z m -1.058936,-0.17349 c -0.15717,-0.12606 -0.156136,-0.12762 0.02604,-0.0392 0.104343,0.0506 0.189715,0.1097 0.189715,0.13128 0,0.0646 -0.04373,0.0459 -0.215758,-0.092 z m 1.26973,0.0469 c 0.02866,-0.0464 0.07108,-0.0844 0.09427,-0.0844 0.02319,0 0.01871,0.038 -0.01,0.0844 -0.02866,0.0464 -0.07108,0.0844 -0.09427,0.0844 -0.02319,0 -0.01871,-0.038 0.01,-0.0844 z m 0.210795,-0.12662 c 0,-0.0232 0.01897,-0.0422 0.04216,-0.0422 0.02319,0 0.04216,0.019 0.04216,0.0422 0,0.0232 -0.01897,0.0422 -0.04216,0.0422 -0.02319,0 -0.04216,-0.019 -0.04216,-0.0422 z m -1.770673,-0.0844 c 0,-0.0232 0.01897,-0.0422 0.04216,-0.0422 0.02319,0 0.04216,0.019 0.04216,0.0422 0,0.0232 -0.01897,0.0422 -0.04216,0.0422 -0.02319,0 -0.04216,-0.019 -0.04216,-0.0422 z m 1.981467,-0.0422 c 0.02866,-0.0464 0.07108,-0.0844 0.09427,-0.0844 0.02319,0 0.01871,0.038 -0.01,0.0844 -0.02866,0.0464 -0.07108,0.0844 -0.09427,0.0844 -0.02319,0 -0.01871,-0.038 0.01,-0.0844 z m -2.150103,-0.0422 c 0,-0.0232 0.01897,-0.0422 0.04216,-0.0422 0.02319,0 0.04216,0.019 0.04216,0.0422 0,0.0232 -0.01897,0.0422 -0.04216,0.0422 -0.02319,0 -0.04216,-0.019 -0.04216,-0.0422 z m -0.168636,-0.0844 c 0,-0.0232 0.01897,-0.0422 0.04216,-0.0422 0.02319,0 0.04216,0.019 0.04216,0.0422 0,0.0232 -0.01897,0.0422 -0.04216,0.0422 -0.02319,0 -0.04216,-0.019 -0.04216,-0.0422 z m 2.529534,0 c 0,-0.0232 0.01897,-0.0422 0.04216,-0.0422 0.02319,0 0.04216,0.019 0.04216,0.0422 0,0.0232 -0.01897,0.0422 -0.04216,0.0422 -0.02319,0 -0.04216,-0.019 -0.04216,-0.0422 z m -2.74838,-0.13967 c -0.03728,-0.0604 -0.02313,-0.0745 0.03718,-0.0372 0.0972,0.0601 0.130496,0.13468 0.06016,0.13468 -0.02045,0 -0.06426,-0.0438 -0.09735,-0.0975 z m 2.959174,0.0131 c 0.02866,-0.0464 0.07108,-0.0844 0.09427,-0.0844 0.02319,0 0.01871,0.038 -0.01,0.0844 -0.02866,0.0464 -0.07108,0.0844 -0.09427,0.0844 -0.02319,0 -0.01871,-0.038 0.01,-0.0844 z m -3.161916,-0.12663 c 0,-0.0232 0.01897,-0.0422 0.04216,-0.0422 0.02319,0 0.04216,0.019 0.04216,0.0422 0,0.0232 -0.01897,0.0422 -0.04216,0.0422 -0.02319,0 -0.04216,-0.019 -0.04216,-0.0422 z m 3.37271,0 c 0,-0.0232 0.01897,-0.0422 0.04216,-0.0422 0.02319,0 0.04216,0.019 0.04216,0.0422 0,0.0232 -0.01897,0.0422 -0.04216,0.0422 -0.02319,0 -0.04216,-0.019 -0.04216,-0.0422 z m -3.541346,-0.0844 c 0,-0.0232 0.01897,-0.0422 0.04216,-0.0422 0.02319,0 0.04216,0.019 0.04216,0.0422 0,0.0232 -0.01897,0.0422 -0.04216,0.0422 -0.02319,0 -0.04216,-0.019 -0.04216,-0.0422 z m 3.752141,-0.0422 c 0.02866,-0.0464 0.07108,-0.0844 0.09427,-0.0844 0.02319,0 0.01871,0.038 -0.01,0.0844 -0.02866,0.0464 -0.07108,0.0844 -0.09427,0.0844 -0.02319,0 -0.01871,-0.038 0.01,-0.0844 z m -3.970987,-0.0975 c -0.03728,-0.0604 -0.02313,-0.0745 0.03718,-0.0372 0.0972,0.0601 0.130495,0.13468 0.06016,0.13468 -0.02045,0 -0.06426,-0.0438 -0.09735,-0.0975 z m 4.181781,-0.0292 c 0,-0.0232 0.01897,-0.0422 0.04216,-0.0422 0.02319,0 0.04216,0.019 0.04216,0.0422 0,0.0232 -0.01897,0.0422 -0.04216,0.0422 -0.02319,0 -0.04216,-0.019 -0.04216,-0.0422 z m -4.510404,-0.12565 c -0.02954,-0.0479 0.0043,-0.062 0.07934,-0.0332 0.146074,0.0561 0.1728,0.11662 0.05151,0.11662 -0.04364,0 -0.102523,-0.0375 -0.130856,-0.0834 z m 4.721199,-9.7e-4 c 0.02866,-0.0464 0.07108,-0.0844 0.09427,-0.0844 0.02319,0 0.01871,0.038 -0.01,0.0844 -0.02866,0.0464 -0.07108,0.0844 -0.09427,0.0844 -0.02319,0 -0.01871,-0.038 0.01,-0.0844 z m -4.93259,-0.12662 c 0,-0.0232 0.01897,-0.0422 0.04216,-0.0422 0.02319,0 0.04216,0.019 0.04216,0.0422 0,0.0232 -0.01897,0.0422 -0.04216,0.0422 -0.02319,0 -0.04216,-0.019 -0.04216,-0.0422 z m 5.143384,0 c 0,-0.0232 0.01897,-0.0422 0.04216,-0.0422 0.02319,0 0.04216,0.019 0.04216,0.0422 0,0.0232 -0.01897,0.0422 -0.04216,0.0422 -0.02319,0 -0.04216,-0.019 -0.04216,-0.0422 z m -5.36223,-0.13967 c -0.03728,-0.0604 -0.02313,-0.0745 0.03718,-0.0372 0.0972,0.0601 0.130496,0.13468 0.06016,0.13468 -0.02045,0 -0.06426,-0.0439 -0.09735,-0.0975 z m 5.573024,0.013 c 0.02866,-0.0464 0.07108,-0.0844 0.09427,-0.0844 0.02319,0 0.01871,0.038 -0.01,0.0844 -0.02866,0.0464 -0.07108,0.0844 -0.09427,0.0844 -0.02319,0 -0.01871,-0.038 0.01,-0.0844 z m -5.775767,-0.12662 c 0,-0.0232 0.01897,-0.0422 0.04216,-0.0422 0.02319,0 0.04216,0.019 0.04216,0.0422 0,0.0232 -0.01897,0.0422 -0.04216,0.0422 -0.02319,0 -0.04216,-0.019 -0.04216,-0.0422 z m 5.986562,0 c 0,-0.0232 0.01897,-0.0422 0.04216,-0.0422 0.02319,0 0.04216,0.019 0.04216,0.0422 0,0.0232 -0.01897,0.0422 -0.04216,0.0422 -0.02319,0 -0.04216,-0.019 -0.04216,-0.0422 z m -6.155197,-0.0844 c 0,-0.0232 0.01897,-0.0422 0.04216,-0.0422 0.02319,0 0.04216,0.019 0.04216,0.0422 0,0.0232 -0.01897,0.0422 -0.04216,0.0422 -0.02319,0 -0.04216,-0.019 -0.04216,-0.0422 z m 6.365991,-0.0422 c 0.02866,-0.0464 0.07108,-0.0844 0.09427,-0.0844 0.02319,0 0.01871,0.038 -0.01,0.0844 -0.02866,0.0464 -0.07108,0.0844 -0.09427,0.0844 -0.02319,0 -0.01871,-0.038 0.01,-0.0844 z m -6.584837,-0.0975 c -0.03728,-0.0604 -0.02313,-0.0745 0.03718,-0.0372 0.0972,0.0601 0.130496,0.13468 0.06016,0.13468 -0.02045,0 -0.06426,-0.0439 -0.09734,-0.0975 z m 6.795632,-0.0292 c 0,-0.0232 0.01897,-0.0422 0.04216,-0.0422 0.02319,0 0.04216,0.019 0.04216,0.0422 0,0.0232 -0.01897,0.0422 -0.04216,0.0422 -0.02319,0 -0.04216,-0.019 -0.04216,-0.0422 z m -6.998375,-0.0844 c 0,-0.0232 0.01897,-0.0422 0.04216,-0.0422 0.02319,0 0.04216,0.019 0.04216,0.0422 0,0.0232 -0.01897,0.0422 -0.04216,0.0422 -0.02319,0 -0.04216,-0.019 -0.04216,-0.0422 z m 7.209169,-0.0422 c 0.02866,-0.0464 0.07108,-0.0844 0.09427,-0.0844 0.02319,0 0.01871,0.038 -0.01,0.0844 -0.02866,0.0464 -0.07108,0.0844 -0.09427,0.0844 -0.02319,0 -0.01871,-0.038 0.01,-0.0844 z m -7.377805,-0.0422 c 0,-0.0232 0.01897,-0.0422 0.04216,-0.0422 0.02319,0 0.04216,0.019 0.04216,0.0422 0,0.0232 -0.01897,0.0422 -0.04216,0.0422 -0.02319,0 -0.04216,-0.019 -0.04216,-0.0422 z m -0.300076,-0.17349 c -0.15717,-0.12606 -0.156136,-0.12762 0.02604,-0.0392 0.104343,0.0506 0.189715,0.10969 0.189715,0.13127 0,0.0646 -0.04373,0.046 -0.215759,-0.092 z m 7.888676,0.0891 c 0,-0.0232 0.01897,-0.0422 0.04216,-0.0422 0.02319,0 0.04216,0.019 0.04216,0.0422 0,0.0232 -0.01897,0.0422 -0.04216,0.0422 -0.02319,0 -0.04216,-0.019 -0.04216,-0.0422 z m 0.210794,-0.12662 c 0.02866,-0.0464 0.07108,-0.0844 0.09427,-0.0844 0.02319,0 0.01871,0.038 -0.01,0.0844 -0.02866,0.0464 -0.07108,0.0844 -0.09427,0.0844 -0.02319,0 -0.01871,-0.038 0.01,-0.0844 z m -8.389618,-0.12662 c 0,-0.0232 0.01897,-0.0422 0.04216,-0.0422 0.02319,0 0.04216,0.019 0.04216,0.0422 0,0.0232 -0.01897,0.0422 -0.04216,0.0422 -0.02319,0 -0.04216,-0.019 -0.04216,-0.0422 z m 8.600412,0.006 c 0,-0.0232 0.07589,-0.0829 0.168636,-0.13256 0.09275,-0.0497 0.168636,-0.0714 0.168636,-0.0481 0,0.0232 -0.07589,0.0829 -0.168636,0.13257 -0.09275,0.0497 -0.168636,0.0714 -0.168636,0.0481 z m -8.769048,-0.0904 c 0,-0.0232 0.01897,-0.0422 0.04216,-0.0422 0.02319,0 0.04216,0.019 0.04216,0.0422 0,0.0232 -0.01897,0.0422 -0.04216,0.0422 -0.02319,0 -0.04216,-0.019 -0.04216,-0.0422 z m -0.218846,-0.13967 c -0.03728,-0.0604 -0.02313,-0.0745 0.03718,-0.0372 0.0972,0.0601 0.130496,0.13468 0.06016,0.13468 -0.02045,0 -0.06426,-0.0439 -0.09735,-0.0975 z m 9.409483,-0.0232 c 0,-0.0232 0.07589,-0.0829 0.168636,-0.13257 0.09275,-0.0497 0.168635,-0.0714 0.168635,-0.0481 0,0.0232 -0.07589,0.0829 -0.168635,0.13256 -0.09275,0.0497 -0.168636,0.0714 -0.168636,0.0481 z m -9.612225,-0.0904 c 0,-0.0232 0.01897,-0.0422 0.04216,-0.0422 0.02319,0 0.04216,0.019 0.04216,0.0422 0,0.0232 -0.01897,0.0422 -0.04216,0.0422 -0.02319,0 -0.04216,-0.019 -0.04216,-0.0422 z m -0.168636,-0.0844 c 0,-0.0232 0.01897,-0.0422 0.04216,-0.0422 0.02319,0 0.04216,0.019 0.04216,0.0422 0,0.0232 -0.01897,0.0422 -0.04216,0.0422 -0.02319,0 -0.04216,-0.019 -0.04216,-0.0422 z m -0.218846,-0.13967 c -0.03728,-0.0604 -0.02313,-0.0745 0.03718,-0.0372 0.0972,0.0601 0.130495,0.13468 0.06016,0.13468 -0.02045,0 -0.06426,-0.0439 -0.09735,-0.0975 z m 10.463455,0.013 c 0.02866,-0.0464 0.07108,-0.0844 0.09427,-0.0844 0.02319,0 0.01871,0.038 -0.01,0.0844 -0.02866,0.0464 -0.07108,0.0844 -0.09427,0.0844 -0.02319,0 -0.01871,-0.038 0.01,-0.0844 z m -10.666198,-0.12663 c 0,-0.0232 0.01897,-0.0422 0.04216,-0.0422 0.02319,0 0.04216,0.019 0.04216,0.0422 0,0.0232 -0.01897,0.0422 -0.04216,0.0422 -0.02319,0 -0.04216,-0.019 -0.04216,-0.0422 z m 10.876992,0 c 0,-0.0232 0.01897,-0.0422 0.04216,-0.0422 0.02319,0 0.04216,0.019 0.04216,0.0422 0,0.0232 -0.01897,0.0422 -0.04216,0.0422 -0.02319,0 -0.04216,-0.019 -0.04216,-0.0422 z m -11.045627,-0.0844 c 0,-0.0232 0.01897,-0.0422 0.04216,-0.0422 0.02319,0 0.04216,0.019 0.04216,0.0422 0,0.0232 -0.01897,0.0422 -0.04216,0.0422 -0.02319,0 -0.04216,-0.019 -0.04216,-0.0422 z m 11.256422,-0.0422 c 0.02866,-0.0464 0.07108,-0.0844 0.09427,-0.0844 0.02319,0 0.01871,0.038 -0.01,0.0844 -0.02866,0.0464 -0.07108,0.0844 -0.09427,0.0844 -0.02319,0 -0.01871,-0.038 0.01,-0.0844 z m -11.425058,-0.0422 c 0,-0.0232 0.01897,-0.0422 0.04216,-0.0422 0.02319,0 0.04216,0.019 0.04216,0.0422 0,0.0232 -0.01897,0.0422 -0.04216,0.0422 -0.02319,0 -0.04216,-0.019 -0.04216,-0.0422 z m -0.218846,-0.13966 c -0.03728,-0.0604 -0.02313,-0.0745 0.03718,-0.0372 0.0972,0.0601 0.130496,0.13469 0.06016,0.13469 -0.02045,0 -0.06426,-0.0439 -0.09735,-0.0975 z m 11.854698,0.0553 c 0,-0.0232 0.01897,-0.0422 0.04216,-0.0422 0.02319,0 0.04216,0.019 0.04216,0.0422 0,0.0232 -0.01897,0.0422 -0.04216,0.0422 -0.02319,0 -0.04216,-0.019 -0.04216,-0.0422 z m 0.210795,-0.12662 c 0.02866,-0.0464 0.07108,-0.0844 0.09427,-0.0844 0.02319,0 0.01871,0.038 -0.01,0.0844 -0.02866,0.0464 -0.07108,0.0844 -0.09427,0.0844 -0.02319,0 -0.01871,-0.038 0.01,-0.0844 z m -12.268236,-0.0422 c 0,-0.0232 0.01897,-0.0422 0.04216,-0.0422 0.02319,0 0.04216,0.019 0.04216,0.0422 0,0.0232 -0.01897,0.0422 -0.04216,0.0422 -0.02319,0 -0.04216,-0.019 -0.04216,-0.0422 z m -0.168635,-0.0844 c 0,-0.0232 0.01897,-0.0422 0.04216,-0.0422 0.02319,0 0.04216,0.019 0.04216,0.0422 0,0.0232 -0.01897,0.0422 -0.04216,0.0422 -0.02319,0 -0.04216,-0.019 -0.04216,-0.0422 z m 12.647665,0 c 0,-0.0232 0.01897,-0.0422 0.04216,-0.0422 0.02319,0 0.04216,0.019 0.04216,0.0422 0,0.0232 -0.01897,0.0422 -0.04216,0.0422 -0.02319,0 -0.04216,-0.019 -0.04216,-0.0422 z m -12.866511,-0.13967 c -0.03728,-0.0604 -0.02313,-0.0745 0.03718,-0.0372 0.0972,0.0601 0.130496,0.13469 0.06016,0.13469 -0.02045,0 -0.06426,-0.0439 -0.09734,-0.0975 z m 13.077306,0.013 c 0.02866,-0.0464 0.07108,-0.0844 0.09427,-0.0844 0.02319,0 0.01871,0.038 -0.01,0.0844 -0.02866,0.0464 -0.07108,0.0844 -0.09427,0.0844 -0.02319,0 -0.01871,-0.038 0.01,-0.0844 z M 51.296379,152.2626 c -0.02954,-0.0478 0.0043,-0.062 0.07934,-0.0332 0.146073,0.0561 0.172799,0.11663 0.05151,0.11663 -0.04364,0 -0.102523,-0.0375 -0.130856,-0.0834 z m 13.616723,0.0412 c 0,-0.0232 0.01897,-0.0422 0.04216,-0.0422 0.02319,0 0.04216,0.019 0.04216,0.0422 0,0.0232 -0.01897,0.0422 -0.04216,0.0422 -0.02319,0 -0.04216,-0.019 -0.04216,-0.0422 z m 0.210794,-0.12662 c 0.02866,-0.0464 0.07108,-0.0844 0.09427,-0.0844 0.02319,0 0.01871,0.038 -0.01,0.0844 -0.02866,0.0464 -0.07108,0.0844 -0.09427,0.0844 -0.02319,0 -0.01871,-0.038 0.01,-0.0844 z m -14.133981,-0.14773 c -0.10488,-0.13388 -0.101898,-0.13687 0.03183,-0.0319 0.08116,0.0637 0.147556,0.1302 0.147556,0.14773 0,0.0695 -0.06924,0.0248 -0.179391,-0.11586 z m 14.344776,0.0211 c 0,-0.0232 0.01897,-0.0422 0.04216,-0.0422 0.02319,0 0.04216,0.019 0.04216,0.0422 0,0.0232 -0.01897,0.0422 -0.04216,0.0422 -0.02319,0 -0.04216,-0.019 -0.04216,-0.0422 z m 0.210794,-0.12663 c 0.02866,-0.0464 0.07108,-0.0844 0.09427,-0.0844 0.02319,0 0.01871,0.038 -0.01,0.0844 -0.02866,0.0464 -0.07108,0.0844 -0.09427,0.0844 -0.02319,0 -0.01871,-0.038 0.01,-0.0844 z M 50.863921,150.911 c 0,-0.53392 0.01369,-0.75235 0.03042,-0.48539 0.01673,0.26697 0.01673,0.70381 0,0.97077 -0.01673,0.26696 -0.03042,0.0485 -0.03042,-0.48538 z m 14.892359,0.88635 c 0,-0.0232 0.01897,-0.0422 0.04216,-0.0422 0.02319,0 0.04216,0.019 0.04216,0.0422 0,0.0232 -0.01897,0.0422 -0.04216,0.0422 -0.02319,0 -0.04216,-0.019 -0.04216,-0.0422 z m -15.029643,-2.70783 c -0.03478,-0.0351 -0.06208,-0.38983 -0.06067,-0.78834 0.0019,-0.52999 0.02548,-0.68519 0.08788,-0.57795 0.09647,0.16577 0.0706,1.46494 -0.02721,1.36629 z m 15.052898,-2.56808 c 7.58e-4,-1.44658 0.0024,-1.4603 0.07991,-0.66059 0.04962,0.51177 0.04934,1.06328 -7.59e-4,1.47725 -0.07232,0.59781 -0.07984,0.5202 -0.07918,-0.81666 z m -0.09133,-2.87432 c -0.0089,-0.30411 -0.05405,-0.59864 -0.100263,-0.65452 -0.04621,-0.0559 -0.02527,-0.0507 0.04654,0.0116 0.09931,0.0861 0.123304,0.24277 0.100263,0.65451 l -0.03029,0.5413 z m -14.856173,-0.46006 c 0,-0.0232 0.01897,-0.0422 0.04216,-0.0422 0.02319,0 0.04216,0.019 0.04216,0.0422 0,0.0232 -0.01897,0.0422 -0.04216,0.0422 -0.02319,0 -0.04216,-0.019 -0.04216,-0.0422 z m 0.210794,-0.12663 c 0.02866,-0.0464 0.07108,-0.0844 0.09427,-0.0844 0.02319,0 0.01871,0.038 -0.01,0.0844 -0.02866,0.0464 -0.07108,0.0844 -0.09427,0.0844 -0.02319,0 -0.01871,-0.038 0.01,-0.0844 z m 0.210794,-0.12662 c 0,-0.0232 0.01897,-0.0422 0.04216,-0.0422 0.02319,0 0.04216,0.019 0.04216,0.0422 0,0.0232 -0.01897,0.0422 -0.04216,0.0422 -0.02319,0 -0.04216,-0.019 -0.04216,-0.0422 z m 0.210795,-0.12662 c 0.02866,-0.0464 0.07108,-0.0844 0.09427,-0.0844 0.02319,0 0.01871,0.038 -0.01,0.0844 -0.02866,0.0464 -0.07108,0.0844 -0.09427,0.0844 -0.02319,0 -0.01871,-0.038 0.01,-0.0844 z m 13.820062,-0.013 c -0.03728,-0.0604 -0.02313,-0.0745 0.03718,-0.0372 0.0972,0.0601 0.130496,0.13468 0.06016,0.13468 -0.02045,0 -0.06426,-0.0439 -0.09735,-0.0975 z m -13.609268,-0.11358 c 0,-0.0232 0.01897,-0.0422 0.04216,-0.0422 0.02319,0 0.04216,0.019 0.04216,0.0422 0,0.0232 -0.01897,0.0422 -0.04216,0.0422 -0.02319,0 -0.04216,-0.019 -0.04216,-0.0422 z m 13.406526,0 c 0,-0.0232 0.01897,-0.0422 0.04216,-0.0422 0.02319,0 0.04216,0.019 0.04216,0.0422 0,0.0232 -0.01897,0.0422 -0.04216,0.0422 -0.02319,0 -0.04216,-0.019 -0.04216,-0.0422 z m -13.195731,-0.12662 c 0.02866,-0.0464 0.07108,-0.0844 0.09427,-0.0844 0.02319,0 0.01871,0.038 -0.01,0.0844 -0.02866,0.0464 -0.07108,0.0844 -0.09427,0.0844 -0.02319,0 -0.01871,-0.038 0.01,-0.0844 z m 13.027095,0.0422 c 0,-0.0232 0.01897,-0.0422 0.04216,-0.0422 0.02319,0 0.04216,0.019 0.04216,0.0422 0,0.0232 -0.01897,0.0422 -0.04216,0.0422 -0.02319,0 -0.04216,-0.019 -0.04216,-0.0422 z m -0.358351,-0.1749 c -0.315216,-0.17121 -0.296029,-0.24251 0.02108,-0.0783 0.139124,0.072 0.252953,0.14897 0.252953,0.171 0,0.0543 -0.0091,0.0512 -0.274033,-0.0927 z m -12.45795,0.006 c 0,-0.0232 0.01897,-0.0422 0.04216,-0.0422 0.02319,0 0.04216,0.019 0.04216,0.0422 0,0.0232 -0.01897,0.0422 -0.04216,0.0422 -0.02319,0 -0.04216,-0.019 -0.04216,-0.0422 z m 0.210794,-0.12662 c 0.02866,-0.0464 0.07108,-0.0844 0.09427,-0.0844 0.02319,0 0.01871,0.038 -0.01,0.0844 -0.02866,0.0464 -0.07108,0.0844 -0.09427,0.0844 -0.02319,0 -0.01871,-0.038 0.01,-0.0844 z m 0.210795,-0.12662 c 0,-0.0232 0.01897,-0.0422 0.04216,-0.0422 0.02319,0 0.04216,0.019 0.04216,0.0422 0,0.0232 -0.01897,0.0422 -0.04216,0.0422 -0.02319,0 -0.04216,-0.019 -0.04216,-0.0422 z m 11.635852,0 c 0,-0.0232 0.01897,-0.0422 0.04216,-0.0422 0.02319,0 0.04216,0.019 0.04216,0.0422 0,0.0232 -0.01897,0.0422 -0.04216,0.0422 -0.02319,0 -0.04216,-0.019 -0.04216,-0.0422 z m -11.425058,-0.12662 c 0.02866,-0.0464 0.07108,-0.0844 0.09427,-0.0844 0.02319,0 0.01871,0.038 -0.01,0.0844 -0.02866,0.0464 -0.07108,0.0844 -0.09427,0.0844 -0.02319,0 -0.01871,-0.038 0.01,-0.0844 z m 11.206212,-0.013 c -0.03727,-0.0604 -0.02313,-0.0745 0.03718,-0.0372 0.0972,0.0601 0.130496,0.13468 0.06016,0.13468 -0.02045,0 -0.06426,-0.0438 -0.09735,-0.0975 z m -10.995417,-0.11357 c 0,-0.0232 0.01897,-0.0422 0.04216,-0.0422 0.02319,0 0.04216,0.019 0.04216,0.0422 0,0.0232 -0.01897,0.0422 -0.04216,0.0422 -0.02319,0 -0.04216,-0.019 -0.04216,-0.0422 z m 10.792674,0 c 0,-0.0232 0.01897,-0.0422 0.04216,-0.0422 0.02319,0 0.04216,0.019 0.04216,0.0422 0,0.0232 -0.01897,0.0422 -0.04216,0.0422 -0.02319,0 -0.04216,-0.019 -0.04216,-0.0422 z m -10.58188,-0.12663 c 0.02866,-0.0464 0.07108,-0.0844 0.09427,-0.0844 0.02319,0 0.01871,0.038 -0.01,0.0844 -0.02866,0.0464 -0.07108,0.0844 -0.09427,0.0844 -0.02319,0 -0.01871,-0.038 0.01,-0.0844 z m 10.413245,0.0422 c 0,-0.0232 0.01897,-0.0422 0.04216,-0.0422 0.02319,0 0.04216,0.019 0.04216,0.0422 0,0.0232 -0.01897,0.0422 -0.04216,0.0422 -0.02319,0 -0.04216,-0.019 -0.04216,-0.0422 z m -0.218846,-0.13966 c -0.03728,-0.0604 -0.02313,-0.0746 0.03718,-0.0372 0.0972,0.0601 0.130496,0.13468 0.06016,0.13468 -0.02045,0 -0.06426,-0.0438 -0.09735,-0.0974 z m -9.983604,-0.0292 c 0,-0.0232 0.01897,-0.0422 0.04216,-0.0422 0.02319,0 0.04216,0.019 0.04216,0.0422 0,0.0232 -0.01897,0.0422 -0.04216,0.0422 -0.02319,0 -0.04216,-0.019 -0.04216,-0.0422 z m 0.210794,-0.12662 c 0.02866,-0.0464 0.07108,-0.0844 0.09427,-0.0844 0.02319,0 0.01871,0.038 -0.01,0.0844 -0.02866,0.0464 -0.07108,0.0844 -0.09427,0.0844 -0.02319,0 -0.01871,-0.038 0.01,-0.0844 z m 9.444187,9.7e-4 c -0.02954,-0.0479 0.0043,-0.062 0.07934,-0.0332 0.146074,0.0561 0.1728,0.11662 0.05152,0.11662 -0.04364,0 -0.102523,-0.0376 -0.130856,-0.0834 z m -9.233393,-0.12759 c 0,-0.0232 0.01897,-0.0422 0.04216,-0.0422 0.02319,0 0.04216,0.019 0.04216,0.0422 0,0.0232 -0.01897,0.0422 -0.04216,0.0422 -0.02319,0 -0.04216,-0.019 -0.04216,-0.0422 z m 9.022002,0 c 0,-0.0232 0.01897,-0.0422 0.04216,-0.0422 0.02319,0 0.04216,0.019 0.04216,0.0422 0,0.0232 -0.01897,0.0422 -0.04216,0.0422 -0.02319,0 -0.04216,-0.019 -0.04216,-0.0422 z m -8.811207,-0.12662 c 0.02866,-0.0464 0.07108,-0.0844 0.09427,-0.0844 0.02319,0 0.01871,0.038 -0.01,0.0844 -0.02866,0.0464 -0.07108,0.0844 -0.09427,0.0844 -0.02319,0 -0.01871,-0.038 0.01,-0.0844 z m 8.642571,0.0422 c 0,-0.0232 0.01897,-0.0422 0.04216,-0.0422 0.02319,0 0.04216,0.019 0.04216,0.0422 0,0.0232 -0.01897,0.0422 -0.04216,0.0422 -0.02319,0 -0.04216,-0.019 -0.04216,-0.0422 z m -0.218846,-0.13966 c -0.03728,-0.0604 -0.02313,-0.0745 0.03718,-0.0372 0.05354,0.0331 0.09735,0.077 0.09735,0.0975 0,0.0704 -0.07446,0.0371 -0.134528,-0.0602 z m -8.212931,-0.0232 c 0,-0.0232 0.07589,-0.0829 0.168636,-0.13256 0.09275,-0.0497 0.168635,-0.0714 0.168635,-0.0481 0,0.0232 -0.07589,0.0829 -0.168635,0.13257 -0.09275,0.0497 -0.168636,0.0714 -0.168636,0.0481 z m 8.010188,-0.0903 c 0,-0.0232 0.01897,-0.0422 0.04216,-0.0422 0.02319,0 0.04216,0.019 0.04216,0.0422 0,0.0232 -0.01897,0.0422 -0.04216,0.0422 -0.02319,0 -0.04216,-0.019 -0.04216,-0.0422 z m -0.218846,-0.13967 c -0.03728,-0.0604 -0.02313,-0.0745 0.03718,-0.0372 0.0972,0.0601 0.130496,0.13468 0.06016,0.13468 -0.02045,0 -0.06426,-0.0438 -0.09735,-0.0975 z m -7.369753,-0.0232 c 0,-0.0232 0.07589,-0.0829 0.168636,-0.13256 0.09275,-0.0497 0.168635,-0.0714 0.168635,-0.0481 0,0.0232 -0.07589,0.0829 -0.168635,0.13256 -0.09275,0.0497 -0.168636,0.0714 -0.168636,0.0482 z m 7.041131,-0.1316 c -0.02954,-0.0478 0.0043,-0.062 0.07934,-0.0332 0.146074,0.0561 0.1728,0.11662 0.05152,0.11662 -0.04364,0 -0.102524,-0.0375 -0.130856,-0.0834 z m -6.619542,-0.12164 c 0,-0.0232 0.07589,-0.0829 0.168636,-0.13257 0.09275,-0.0497 0.168635,-0.0714 0.168635,-0.0481 0,0.0232 -0.07589,0.0829 -0.168635,0.13256 -0.09275,0.0497 -0.168636,0.0714 -0.168636,0.0481 z m 6.40815,-0.006 c 0,-0.0232 0.01897,-0.0422 0.04216,-0.0422 0.02319,0 0.04216,0.019 0.04216,0.0422 0,0.0232 -0.01897,0.0422 -0.04216,0.0422 -0.02319,0 -0.04216,-0.019 -0.04216,-0.0422 z m -0.168635,-0.0844 c 0,-0.0232 0.01897,-0.0422 0.04216,-0.0422 0.02319,0 0.04216,0.019 0.04216,0.0422 0,0.0232 -0.01897,0.0422 -0.04216,0.0422 -0.02319,0 -0.04216,-0.019 -0.04216,-0.0422 z m -0.218846,-0.13966 c -0.03728,-0.0604 -0.02313,-0.0746 0.03718,-0.0372 0.05354,0.0331 0.09735,0.077 0.09735,0.0975 0,0.0704 -0.07446,0.0371 -0.134528,-0.0602 z m -5.556921,-0.0714 c 0.02866,-0.0464 0.07108,-0.0844 0.09427,-0.0844 0.02319,0 0.01871,0.038 -0.01,0.0844 -0.02866,0.0464 -0.07108,0.0844 -0.09427,0.0844 -0.02319,0 -0.01871,-0.038 0.01,-0.0844 z m 5.354178,-0.0422 c 0,-0.0232 0.01897,-0.0422 0.04216,-0.0422 0.02319,0 0.04216,0.019 0.04216,0.0422 0,0.0232 -0.01897,0.0422 -0.04216,0.0422 -0.02319,0 -0.04216,-0.019 -0.04216,-0.0422 z m -5.143384,-0.0844 c 0,-0.0232 0.01897,-0.0422 0.04216,-0.0422 0.02319,0 0.04216,0.019 0.04216,0.0422 0,0.0232 -0.01897,0.0422 -0.04216,0.0422 -0.02319,0 -0.04216,-0.019 -0.04216,-0.0422 z m 4.924538,-0.0553 c -0.03728,-0.0604 -0.02313,-0.0745 0.03718,-0.0372 0.05354,0.0331 0.09735,0.077 0.09735,0.0974 0,0.0704 -0.07446,0.0371 -0.134528,-0.0602 z m -4.713743,-0.0714 c 0.02866,-0.0464 0.07108,-0.0844 0.09427,-0.0844 0.02319,0 0.01871,0.038 -0.01,0.0844 -0.02866,0.0464 -0.07108,0.0844 -0.09427,0.0844 -0.02319,0 -0.01871,-0.038 0.01,-0.0844 z m 4.511,-0.0422 c 0,-0.0232 0.01897,-0.0422 0.04216,-0.0422 0.02319,0 0.04216,0.019 0.04216,0.0422 0,0.0232 -0.01897,0.0422 -0.04216,0.0422 -0.02319,0 -0.04216,-0.019 -0.04216,-0.0422 z m -4.300206,-0.0844 c 0,-0.0232 0.01897,-0.0422 0.04216,-0.0422 0.02319,0 0.04216,0.019 0.04216,0.0422 0,0.0232 -0.01897,0.0422 -0.04216,0.0422 -0.02319,0 -0.04216,-0.019 -0.04216,-0.0422 z m 4.131571,0 c 0,-0.0232 0.01897,-0.0422 0.04216,-0.0422 0.02319,0 0.04216,0.019 0.04216,0.0422 0,0.0232 -0.01897,0.0422 -0.04216,0.0422 -0.02319,0 -0.04216,-0.019 -0.04216,-0.0422 z m -3.920777,-0.12662 c 0.02866,-0.0464 0.07108,-0.0844 0.09427,-0.0844 0.02319,0 0.01871,0.038 -0.01,0.0844 -0.02866,0.0464 -0.07108,0.0844 -0.09427,0.0844 -0.02319,0 -0.01871,-0.038 0.01,-0.0844 z m 3.667823,0 c -0.07599,-0.0492 -0.08639,-0.0823 -0.02605,-0.0831 0.05523,-7.1e-4 0.123871,0.0367 0.152532,0.0831 0.0647,0.1048 0.03551,0.1048 -0.126477,0 z m -3.457028,-0.12663 c 0,-0.0232 0.01897,-0.0422 0.04216,-0.0422 0.02319,0 0.04216,0.019 0.04216,0.0422 0,0.0232 -0.01897,0.0422 -0.04216,0.0422 -0.02319,0 -0.04216,-0.019 -0.04216,-0.0422 z m 3.153865,-0.0552 c -0.03728,-0.0604 -0.02313,-0.0745 0.03718,-0.0372 0.05354,0.0331 0.09735,0.077 0.09735,0.0975 0,0.0704 -0.07446,0.0371 -0.134528,-0.0602 z m -2.943071,-0.0714 c 0.02866,-0.0464 0.07108,-0.0844 0.09427,-0.0844 0.02319,0 0.01871,0.038 -0.01,0.0844 -0.02866,0.0464 -0.07108,0.0844 -0.09427,0.0844 -0.02319,0 -0.01871,-0.038 0.01,-0.0844 z m 2.740328,-0.0422 c 0,-0.0232 0.01897,-0.0422 0.04216,-0.0422 0.02319,0 0.04216,0.019 0.04216,0.0422 0,0.0232 -0.01897,0.0422 -0.04216,0.0422 -0.02319,0 -0.04216,-0.019 -0.04216,-0.0422 z m -2.529533,-0.0844 c 0,-0.0232 0.01897,-0.0422 0.04216,-0.0422 0.02319,0 0.04216,0.019 0.04216,0.0422 0,0.0232 -0.01897,0.0422 -0.04216,0.0422 -0.02319,0 -0.04216,-0.019 -0.04216,-0.0422 z m 2.229457,-0.0891 c -0.157171,-0.12607 -0.156136,-0.12762 0.02604,-0.0392 0.104343,0.0506 0.189715,0.1097 0.189715,0.13128 0,0.0646 -0.04373,0.0459 -0.215758,-0.092 z m -2.018663,-0.0375 c 0.02866,-0.0464 0.07108,-0.0844 0.09427,-0.0844 0.02319,0 0.01871,0.038 -0.01,0.0844 -0.02866,0.0464 -0.07108,0.0844 -0.09427,0.0844 -0.02319,0 -0.01871,-0.038 0.01,-0.0844 z m 0.210795,-0.12662 c 0,-0.0232 0.01897,-0.0422 0.04216,-0.0422 0.02319,0 0.04216,0.019 0.04216,0.0422 0,0.0232 -0.01897,0.0422 -0.04216,0.0422 -0.02319,0 -0.04216,-0.019 -0.04216,-0.0422 z m 1.517719,0 c 0,-0.0232 0.01897,-0.0422 0.04216,-0.0422 0.02319,0 0.04216,0.019 0.04216,0.0422 0,0.0232 -0.01897,0.0422 -0.04216,0.0422 -0.02319,0 -0.04216,-0.019 -0.04216,-0.0422 z m -1.306925,-0.12663 c 0.02866,-0.0464 0.07108,-0.0844 0.09427,-0.0844 0.02319,0 0.01871,0.038 -0.01,0.0844 -0.02866,0.0464 -0.07108,0.0844 -0.09427,0.0844 -0.02319,0 -0.01871,-0.038 0.01,-0.0844 z m 1.088079,-0.013 c -0.03727,-0.0604 -0.02313,-0.0745 0.03718,-0.0372 0.05354,0.0331 0.09735,0.077 0.09735,0.0975 0,0.0704 -0.07446,0.0371 -0.134529,-0.0602 z m -0.877285,-0.11358 c 0,-0.0232 0.01897,-0.0422 0.04216,-0.0422 0.02319,0 0.04216,0.019 0.04216,0.0422 0,0.0232 -0.01897,0.0422 -0.04216,0.0422 -0.02319,0 -0.04216,-0.019 -0.04216,-0.0422 z m 0.495152,-0.10552 c -0.107043,-0.13664 -0.103074,-0.13844 0.05291,-0.0239 0.09275,0.0681 0.184445,0.13458 0.203768,0.14772 0.01932,0.0131 -0.0045,0.0239 -0.05291,0.0239 -0.04843,0 -0.140121,-0.0665 -0.203768,-0.14773 z m -0.326516,0.0211 c 0,-0.0232 0.01897,-0.0422 0.04216,-0.0422 0.02319,0 0.04216,0.019 0.04216,0.0422 0,0.0232 -0.01897,0.0422 -0.04216,0.0422 -0.02319,0 -0.04216,-0.019 -0.04216,-0.0422 z"
       id="path530" /><path
       style="fill:#48d7bb;stroke-width:0.0843662"
       d="m 58.364422,156.25726 c 0.03092,-0.0309 0.08151,-0.0309 0.112424,0 0.03092,0.0309 0.0056,0.0563 -0.05621,0.0563 -0.06183,0 -0.08713,-0.0253 -0.05621,-0.0563 z m -0.302139,-0.24525 c -0.33391,-0.18136 -0.285833,-0.22799 0.06324,-0.0613 0.275605,0.13158 0.314619,0.13158 0.590224,0 0.357456,-0.17065 0.396321,-0.11594 0.04635,0.0652 -0.304499,0.15764 -0.403382,0.15709 -0.699809,-0.004 z m -0.400509,-0.24717 c 0,-0.0232 0.01897,-0.0422 0.04216,-0.0422 0.02319,0 0.04216,0.019 0.04216,0.0422 0,0.0232 -0.01897,0.0422 -0.04216,0.0422 -0.02319,0 -0.04216,-0.019 -0.04216,-0.0422 z m 1.433402,0 c 0,-0.0232 0.01897,-0.0422 0.04216,-0.0422 0.02319,0 0.04216,0.019 0.04216,0.0422 0,0.0232 -0.01897,0.0422 -0.04216,0.0422 -0.02319,0 -0.04216,-0.019 -0.04216,-0.0422 z m -2.12509,-0.3636 c -0.310867,-0.17485 -0.595439,-0.35144 -0.632384,-0.39242 -0.07826,-0.0868 1.074236,0.53193 1.193379,0.64069 0.145712,0.13302 0.01063,0.0732 -0.560995,-0.24827 z m 2.397115,0.18813 c 0.08005,-0.0837 0.163698,-0.13397 0.18588,-0.11176 0.02218,0.0222 -0.04331,0.0907 -0.145548,0.15214 -0.1776,0.10677 -0.179396,0.10498 -0.04033,-0.0404 z m 0.360639,-0.20485 c 0.05647,-0.0915 0.547785,-0.36548 0.547785,-0.3055 0,0.0198 -0.135081,0.11583 -0.300178,0.21335 -0.165099,0.0975 -0.276521,0.13899 -0.247607,0.0922 z m 0.758579,-0.463 c 0.188385,-0.15675 0.722546,-0.44584 0.590224,-0.31943 -0.04637,0.0443 -0.236089,0.16587 -0.421588,0.27015 -0.185499,0.10428 -0.261385,0.12646 -0.168636,0.0493 z m -4.342365,-8.2e-4 c 0,-0.0232 0.01897,-0.0422 0.04216,-0.0422 0.02319,0 0.04216,0.019 0.04216,0.0422 0,0.0232 -0.01897,0.0422 -0.04216,0.0422 -0.02319,0 -0.04216,-0.019 -0.04216,-0.0422 z m -0.735706,-0.39826 c -0.335076,-0.19336 -0.596421,-0.36438 -0.580767,-0.38006 0.03312,-0.0332 1.232155,0.64918 1.232155,0.7012 0,0.0543 -0.0058,0.0514 -0.651388,-0.32114 z m 5.942215,-0.11932 c 0.221588,-0.18435 1.033006,-0.64992 1.033006,-0.59271 0,0.0215 -0.180229,0.14392 -0.400509,0.27208 -0.220281,0.12817 -0.495367,0.28823 -0.611304,0.3557 l -0.210795,0.12267 z m -6.855669,-0.41564 c -0.157171,-0.12607 -0.156136,-0.12762 0.02604,-0.0392 0.104343,0.0506 0.189715,0.1097 0.189715,0.13128 0,0.0646 -0.04373,0.0459 -0.215758,-0.092 z m -0.290149,-0.16417 c 0,-0.0232 0.01897,-0.0422 0.04216,-0.0422 0.02319,0 0.04216,0.019 0.04216,0.0422 0,0.0232 -0.01897,0.0422 -0.04216,0.0422 -0.02319,0 -0.04216,-0.019 -0.04216,-0.0422 z m -0.610511,-0.32536 c -0.654345,-0.37586 -0.739463,-0.49166 -0.10619,-0.14446 0.460965,0.25272 0.725317,0.4316 0.628168,0.42505 -0.02087,-0.001 -0.255759,-0.12767 -0.521978,-0.28059 z m 8.915812,0.19873 c 0.02866,-0.0464 0.07108,-0.0844 0.09427,-0.0844 0.02319,0 0.01871,0.038 -0.01,0.0844 -0.02866,0.0464 -0.07108,0.0844 -0.09427,0.0844 -0.02319,0 -0.01871,-0.038 0.01,-0.0844 z M 62.72084,153.576 c 0,-0.0232 0.07589,-0.0829 0.168636,-0.13256 0.09275,-0.0497 0.168635,-0.0714 0.168635,-0.0482 0,0.0232 -0.07589,0.0829 -0.168635,0.13256 -0.09275,0.0497 -0.168636,0.0714 -0.168636,0.0481 z m 0.421589,-0.25918 c 0,-0.0232 0.01897,-0.0422 0.04216,-0.0422 0.02319,0 0.04216,0.019 0.04216,0.0422 0,0.0232 -0.01897,0.0422 -0.04216,0.0422 -0.02319,0 -0.04216,-0.019 -0.04216,-0.0422 z m 0.210794,-0.12662 c 0.02866,-0.0464 0.07108,-0.0844 0.09427,-0.0844 0.02319,0 0.01871,0.038 -0.01,0.0844 -0.02866,0.0464 -0.07108,0.0844 -0.09427,0.0844 -0.02319,0 -0.01871,-0.038 0.01,-0.0844 z m -10.497562,-0.12663 c 0,-0.0232 0.01897,-0.0422 0.04216,-0.0422 0.02319,0 0.04216,0.019 0.04216,0.0422 0,0.0232 -0.01897,0.0422 -0.04216,0.0422 -0.02319,0 -0.04216,-0.019 -0.04216,-0.0422 z m 10.708357,0 c 0,-0.0232 0.01897,-0.0422 0.04216,-0.0422 0.02319,0 0.04216,0.019 0.04216,0.0422 0,0.0232 -0.01897,0.0422 -0.04216,0.0422 -0.02319,0 -0.04216,-0.019 -0.04216,-0.0422 z m -11.066708,-0.1749 c -0.315217,-0.17121 -0.296029,-0.24251 0.02108,-0.0783 0.139124,0.072 0.252953,0.14897 0.252953,0.171 0,0.0543 -0.0091,0.0512 -0.274033,-0.0927 z m 11.277502,0.0483 c 0.02866,-0.0464 0.07108,-0.0844 0.09427,-0.0844 0.02319,0 0.01871,0.038 -0.01,0.0844 -0.02866,0.0464 -0.07108,0.0844 -0.09427,0.0844 -0.02319,0 -0.01871,-0.038 0.01,-0.0844 z m 0.210795,-0.12068 c 0,-0.0232 0.07589,-0.0829 0.168635,-0.13256 0.09275,-0.0497 0.168636,-0.0714 0.168636,-0.0481 0,0.0232 -0.07589,0.0829 -0.168636,0.13256 -0.09275,0.0497 -0.168635,0.0714 -0.168635,0.0481 z m -12.078521,-0.26526 c -0.315217,-0.17121 -0.29603,-0.24251 0.02108,-0.0783 0.139124,0.072 0.252953,0.14898 0.252953,0.171 0,0.0543 -0.0091,0.0513 -0.274033,-0.0927 z m 12.500109,0.006 c 0,-0.0232 0.01897,-0.0422 0.04216,-0.0422 0.02319,0 0.04216,0.019 0.04216,0.0422 0,0.0232 -0.01897,0.0422 -0.04216,0.0422 -0.02319,0 -0.04216,-0.019 -0.04216,-0.0422 z m 0.252954,-0.15153 c 0.15073,-0.14593 0.927495,-0.59958 0.927495,-0.54168 0,0.0222 -0.237144,0.18071 -0.526986,0.35224 -0.289842,0.17154 -0.470071,0.25678 -0.400509,0.18944 z m -13.153572,-0.10172 c 0,-0.0232 0.01897,-0.0422 0.04216,-0.0422 0.02319,0 0.04216,0.019 0.04216,0.0422 0,0.0232 -0.01897,0.0422 -0.04216,0.0422 -0.02319,0 -0.04216,-0.019 -0.04216,-0.0422 z m -0.368711,-0.23214 c -0.207038,-0.18772 -0.210572,-0.21453 -0.303228,-2.3003 -0.05156,-1.1607 -0.113481,-2.53772 -0.137598,-3.06003 -0.02577,-0.55817 -0.01165,-0.94967 0.03427,-0.94967 0.07982,0 0.14465,1.20252 0.234366,4.34736 l 0.05057,1.77271 0.224087,0.18951 c 0.123248,0.10423 0.197745,0.1897 0.16555,0.18993 -0.0322,2.6e-4 -0.152802,-0.085 -0.268015,-0.18951 z m 14.58579,-0.332 c 0.02435,-0.0394 0.0796,-0.0499 0.122768,-0.0232 0.11032,0.0683 0.0979,0.0949 -0.04428,0.0949 -0.06752,0 -0.102844,-0.0323 -0.07849,-0.0717 z m 0.05423,-2.5592 c -0.0027,-0.60357 0.02392,-1.30632 0.05918,-1.56167 0.05269,-0.38162 0.06436,-0.29144 0.06551,0.50648 7.59e-4,0.53393 -0.02586,1.23668 -0.05918,1.56168 -0.0527,0.51403 -0.06122,0.44813 -0.06551,-0.50649 z m -0.07092,-3.50321 c 0,-0.85892 0.01252,-1.2103 0.02782,-0.78084 0.0153,0.42946 0.0153,1.13221 0,1.56167 -0.0153,0.42946 -0.02782,0.0781 -0.02782,-0.78083 z m -0.10372,-2.12791 c -0.01542,-0.47633 -0.01993,-0.48437 -0.395027,-0.70445 -0.472303,-0.2771 -0.504858,-0.37236 -0.03736,-0.10931 0.47625,0.26797 0.514551,0.33556 0.479188,0.84555 l -0.03121,0.45003 z M 51.00067,143.14073 c 0.292464,-0.19875 0.45902,-0.25659 0.252953,-0.0878 -0.115937,0.0949 -0.248737,0.17288 -0.295112,0.1732 -0.04638,3.2e-4 -0.0274,-0.0381 0.04216,-0.0854 z m 0.505907,-0.28083 c 0,-0.0198 0.13508,-0.11583 0.300178,-0.21335 0.165098,-0.0975 0.276521,-0.13899 0.247606,-0.0922 -0.05647,0.0915 -0.547784,0.36548 -0.547784,0.3055 z m 13.153572,-0.34816 c 0,-0.0232 0.01897,-0.0422 0.04216,-0.0422 0.02319,0 0.04216,0.019 0.04216,0.0422 0,0.0232 -0.01897,0.0422 -0.04216,0.0422 -0.02319,0 -0.04216,-0.019 -0.04216,-0.0422 z m -12.47903,-0.0844 c 0,-0.0232 0.01897,-0.0422 0.04216,-0.0422 0.02319,0 0.04216,0.019 0.04216,0.0422 0,0.0232 -0.01897,0.0422 -0.04216,0.0422 -0.02319,0 -0.04216,-0.019 -0.04216,-0.0422 z m 12.310394,0 c 0,-0.0232 0.01897,-0.0422 0.04216,-0.0422 0.02319,0 0.04216,0.019 0.04216,0.0422 0,0.0232 -0.01897,0.0422 -0.04216,0.0422 -0.02319,0 -0.04216,-0.019 -0.04216,-0.0422 z m -12.141759,-0.0785 c 0,-0.0232 0.07589,-0.0829 0.168636,-0.13256 0.09275,-0.0497 0.168635,-0.0714 0.168635,-0.0481 0,0.0232 -0.07589,0.0829 -0.168635,0.13256 -0.09275,0.0497 -0.168636,0.0714 -0.168636,0.0481 z m 11.922913,-0.0612 c -0.03727,-0.0604 -0.02313,-0.0745 0.03718,-0.0372 0.0972,0.0601 0.130496,0.13469 0.06016,0.13469 -0.02045,0 -0.06426,-0.0439 -0.09735,-0.0975 z m -0.685561,-0.34823 c -0.242363,-0.14399 -0.42719,-0.27528 -0.410727,-0.29176 0.0256,-0.0256 0.870191,0.44011 0.970837,0.53537 0.117154,0.11087 -0.183598,-0.0199 -0.56011,-0.24361 z m -10.773604,0.10803 c 0.02866,-0.0464 0.07108,-0.0844 0.09427,-0.0844 0.02319,0 0.01871,0.038 -0.01,0.0844 -0.02866,0.0464 -0.07108,0.0844 -0.09427,0.0844 -0.02319,0 -0.01871,-0.038 0.01,-0.0844 z m 0.210795,-0.12662 c 0,-0.0232 0.01897,-0.0422 0.04216,-0.0422 0.02319,0 0.04216,0.019 0.04216,0.0422 0,0.0232 -0.01897,0.0422 -0.04216,0.0422 -0.02319,0 -0.04216,-0.019 -0.04216,-0.0422 z m 0.210794,-0.12663 c 0.02866,-0.0464 0.07108,-0.0844 0.09427,-0.0844 0.02319,0 0.01871,0.038 -0.01,0.0844 -0.02866,0.0464 -0.07108,0.0844 -0.09427,0.0844 -0.02319,0 -0.01871,-0.038 0.01,-0.0844 z m 0.210794,-0.12662 c 0,-0.0232 0.01897,-0.0422 0.04216,-0.0422 0.02319,0 0.04216,0.019 0.04216,0.0422 0,0.0232 -0.01897,0.0422 -0.04216,0.0422 -0.02319,0 -0.04216,-0.019 -0.04216,-0.0422 z m 0.210795,-0.12662 c 0.02866,-0.0464 0.07108,-0.0844 0.09427,-0.0844 0.02319,0 0.01871,0.038 -0.01,0.0844 -0.02866,0.0464 -0.07108,0.0844 -0.09427,0.0844 -0.02319,0 -0.01871,-0.038 0.01,-0.0844 z m 9.266903,-0.013 c -0.03728,-0.0604 -0.02313,-0.0745 0.03718,-0.0372 0.0972,0.0601 0.130496,0.13468 0.06016,0.13468 -0.02045,0 -0.06426,-0.0439 -0.09735,-0.0975 z m -9.056109,-0.11358 c 0,-0.0232 0.01897,-0.0422 0.04216,-0.0422 0.02319,0 0.04216,0.019 0.04216,0.0422 0,0.0232 -0.01897,0.0422 -0.04216,0.0422 -0.02319,0 -0.04216,-0.019 -0.04216,-0.0422 z m 8.727486,-0.0412 c -0.02954,-0.0479 0.0043,-0.062 0.07934,-0.0332 0.146073,0.0561 0.1728,0.11662 0.05151,0.11662 -0.04364,0 -0.102523,-0.0375 -0.130856,-0.0834 z m -8.516691,-0.0854 c 0.02866,-0.0464 0.07108,-0.0844 0.09427,-0.0844 0.02319,0 0.01871,0.038 -0.01,0.0844 -0.02866,0.0464 -0.07108,0.0844 -0.09427,0.0844 -0.02319,0 -0.01871,-0.038 0.01,-0.0844 z m 8.010188,-0.20884 c -0.185499,-0.11438 -0.310983,-0.20915 -0.278853,-0.2106 0.07307,-0.003 0.658283,0.33947 0.658283,0.38557 0,0.0549 -0.02605,0.0429 -0.37943,-0.17497 z m -7.799394,0.0822 c 0,-0.0232 0.01897,-0.0422 0.04216,-0.0422 0.02319,0 0.04216,0.019 0.04216,0.0422 0,0.0232 -0.01897,0.0422 -0.04216,0.0422 -0.02319,0 -0.04216,-0.019 -0.04216,-0.0422 z m 0.210794,-0.12662 c 0.02866,-0.0464 0.07108,-0.0844 0.09427,-0.0844 0.02319,0 0.01871,0.038 -0.01,0.0844 -0.02866,0.0464 -0.07108,0.0844 -0.09427,0.0844 -0.02319,0 -0.01871,-0.038 0.01,-0.0844 z m 0.210795,-0.12662 c 0,-0.0232 0.01897,-0.0422 0.04216,-0.0422 0.02319,0 0.04216,0.019 0.04216,0.0422 0,0.0232 -0.01897,0.0422 -0.04216,0.0422 -0.02319,0 -0.04216,-0.019 -0.04216,-0.0422 z m 0.210794,-0.12662 c 0.02866,-0.0464 0.07108,-0.0844 0.09427,-0.0844 0.02319,0 0.01871,0.038 -0.01,0.0844 -0.02866,0.0464 -0.07108,0.0844 -0.09427,0.0844 -0.02319,0 -0.01871,-0.038 0.01,-0.0844 z m 6.571823,-0.0469 c -0.15717,-0.12606 -0.156137,-0.12762 0.02604,-0.0392 0.104343,0.0506 0.189715,0.10969 0.189715,0.13127 0,0.0646 -0.04373,0.0459 -0.215758,-0.092 z m -6.361028,-0.0798 c 0,-0.0232 0.01897,-0.0422 0.04216,-0.0422 0.02319,0 0.04216,0.019 0.04216,0.0422 0,0.0232 -0.01897,0.0422 -0.04216,0.0422 -0.02319,0 -0.04216,-0.019 -0.04216,-0.0422 z m 0.210794,-0.12663 c 0.02866,-0.0464 0.07108,-0.0844 0.09427,-0.0844 0.02319,0 0.01871,0.038 -0.01,0.0844 -0.02866,0.0464 -0.07108,0.0844 -0.09427,0.0844 -0.02319,0 -0.01871,-0.038 0.01,-0.0844 z m 5.860085,0.0422 c 0,-0.0232 0.01897,-0.0422 0.04216,-0.0422 0.02319,0 0.04216,0.019 0.04216,0.0422 0,0.0232 -0.01897,0.0422 -0.04216,0.0422 -0.02319,0 -0.04216,-0.019 -0.04216,-0.0422 z m -0.218846,-0.13966 c -0.03728,-0.0604 -0.02313,-0.0746 0.03718,-0.0372 0.05354,0.0331 0.09735,0.077 0.09735,0.0975 0,0.0704 -0.07446,0.0371 -0.134528,-0.0602 z m -5.430444,-0.0232 c 0,-0.0232 0.07589,-0.0829 0.168635,-0.13256 0.09275,-0.0497 0.168636,-0.0714 0.168636,-0.0482 0,0.0232 -0.07589,0.0829 -0.168636,0.13256 -0.09275,0.0497 -0.168635,0.0714 -0.168635,0.0481 z m 4.871587,-0.25083 c -0.441456,-0.26262 -0.511454,-0.35927 -0.107633,-0.14862 0.422679,0.2205 0.615248,0.3507 0.505906,0.34205 -0.04637,-0.004 -0.225598,-0.0907 -0.398273,-0.19343 z m -4.449999,-0.002 c 0,-0.0232 0.07589,-0.0829 0.168636,-0.13257 0.09275,-0.0497 0.168636,-0.0714 0.168636,-0.0481 0,0.0232 -0.07589,0.0829 -0.168636,0.13256 -0.09275,0.0497 -0.168636,0.0714 -0.168636,0.0481 z m 0.421589,-0.25325 c 0,-0.0232 0.07589,-0.0829 0.168636,-0.13256 0.09275,-0.0497 0.168635,-0.0714 0.168635,-0.0481 0,0.0232 -0.07589,0.0829 -0.168635,0.13257 -0.09275,0.0497 -0.168636,0.0714 -0.168636,0.0481 z m 3.457029,-0.0904 c 0,-0.0232 0.01897,-0.0422 0.04216,-0.0422 0.02319,0 0.04216,0.019 0.04216,0.0422 0,0.0232 -0.01897,0.0422 -0.04216,0.0422 -0.02319,0 -0.04216,-0.019 -0.04216,-0.0422 z m -0.300076,-0.17349 c -0.15717,-0.12606 -0.156136,-0.12762 0.02604,-0.0392 0.104343,0.0506 0.189715,0.1097 0.189715,0.13128 0,0.0646 -0.04373,0.046 -0.215758,-0.092 z m -2.693205,-0.0144 c 0.04638,-0.0443 0.23609,-0.16586 0.421589,-0.27014 0.185499,-0.10428 0.261385,-0.12646 0.168635,-0.0493 -0.188385,0.15675 -0.722545,0.44584 -0.590224,0.31943 z m 2.403056,-0.14977 c 0,-0.0232 0.01897,-0.0422 0.04216,-0.0422 0.02319,0 0.04216,0.019 0.04216,0.0422 0,0.0232 -0.01897,0.0422 -0.04216,0.0422 -0.02319,0 -0.04216,-0.019 -0.04216,-0.0422 z m -0.463747,-0.25104 c -0.185499,-0.11439 -0.310983,-0.20916 -0.278853,-0.21061 0.07307,-0.003 0.658283,0.33948 0.658283,0.38557 0,0.055 -0.02605,0.0429 -0.37943,-0.17496 z m -1.016777,-0.16695 c 0.09002,-0.0719 0.194362,-0.13071 0.231874,-0.13071 0.03751,0 0.0682,-0.057 0.0682,-0.12662 0,-0.17631 0.108505,-0.15799 0.231437,0.0391 0.08498,0.13622 0.08244,0.15766 -0.01427,0.12051 -0.0647,-0.0249 -0.244372,0.0164 -0.399276,0.0916 -0.239151,0.11618 -0.256949,0.1171 -0.117971,0.006 z"
       id="path528" /><path
       style="fill:#2cd1b1;stroke-width:0.0843662"
       d="m 57.113708,155.40067 c -0.649246,-0.36175 -1.419625,-0.79818 -1.711952,-0.96982 -0.292327,-0.17165 -0.546409,-0.31209 -0.564627,-0.31209 -0.01822,0 -0.261049,-0.13374 -0.539624,-0.2972 -0.278574,-0.16345 -1.086896,-0.62122 -1.79627,-1.01725 -0.709374,-0.39603 -1.333129,-0.76562 -1.386122,-0.8213 -0.06467,-0.0679 -0.128194,-1.10048 -0.193194,-3.14017 -0.05641,-1.77019 -0.130592,-3.05068 -0.177681,-3.06707 -0.103239,-0.0359 -0.107487,-2.04002 -0.0043,-2.04002 0.155526,0 0.321413,3.09125 0.336406,6.26884 l 0.0087,1.83707 0.459697,0.2944 c 0.252834,0.16192 0.477499,0.2944 0.499257,0.2944 0.02176,0 0.36806,0.18994 0.76956,0.42208 0.401501,0.23214 0.749963,0.42207 0.774361,0.42207 0.0244,0 0.213023,0.11396 0.419166,0.25324 0.206143,0.13929 0.395262,0.25325 0.420265,0.25325 0.025,0 0.563788,0.2969 1.197301,0.65978 0.633513,0.36288 1.208757,0.68609 1.278319,0.71825 0.06956,0.0322 0.259277,0.13868 0.421589,0.23672 0.162311,0.098 0.469898,0.26979 0.683525,0.38166 0.465771,0.24391 0.457243,0.24648 1.677372,-0.50595 0.486935,-0.30028 2.053221,-1.24281 3.480634,-2.0945 l 2.595298,-1.54854 -0.03513,-0.67531 c -0.01932,-0.37143 -0.08212,-2.27076 -0.139558,-4.22074 -0.07,-2.37663 -0.135691,-3.57806 -0.199267,-3.64446 -0.05216,-0.0545 -0.322499,-0.22255 -0.600748,-0.37351 -0.278248,-0.15096 -0.619735,-0.3435 -0.75886,-0.42786 -0.139124,-0.0844 -0.34781,-0.20072 -0.463747,-0.25856 -0.115937,-0.0578 -0.476396,-0.26003 -0.801019,-0.44932 -0.324624,-0.18928 -0.647139,-0.37167 -0.716701,-0.40532 -0.06956,-0.0336 -0.202363,-0.10728 -0.295112,-0.16364 -0.09275,-0.0564 -0.586009,-0.3355 -1.096131,-0.62029 -0.510123,-0.2848 -1.241046,-0.69303 -1.624273,-0.90719 -0.383227,-0.21416 -0.774421,-0.38938 -0.86932,-0.38938 -0.0949,0 -0.350494,0.11491 -0.567989,0.25536 -0.217496,0.14044 -1.813214,1.10622 -3.546041,2.14617 -2.125258,1.27547 -3.19544,1.87255 -3.288393,1.83468 -0.110679,-0.0451 -0.100166,-0.0616 0.05342,-0.0841 0.10517,-0.0154 0.427685,-0.17447 0.716701,-0.35357 1.322066,-0.81929 6.443031,-3.88081 6.571923,-3.92898 0.09359,-0.035 0.537451,0.16791 1.264766,0.57811 0.616314,0.3476 1.291315,0.72703 1.500001,0.84318 0.208687,0.11615 0.714424,0.40504 1.123861,0.64197 0.409436,0.23693 0.757274,0.43078 0.772972,0.43078 0.0157,0 0.317342,0.17094 0.67032,0.37987 0.352979,0.20893 0.658493,0.37987 0.678923,0.37987 0.02043,0 0.35583,0.18845 0.745336,0.41877 l 0.708192,0.41878 0.0519,0.82634 c 0.02855,0.45449 0.08083,2.0799 0.116194,3.61202 0.03626,1.57109 0.08565,2.54645 0.113273,2.23699 0.03796,-0.42517 0.05001,-0.32066 0.05356,0.46428 0.0065,1.43428 0.0033,1.44297 -0.672479,1.85063 -2.882983,1.73908 -5.503841,3.32487 -5.692199,3.44414 -0.430112,0.27236 -1.024847,0.57206 -1.133351,0.57111 -0.05951,-5.1e-4 -0.639402,-0.29692 -1.288649,-0.65868 z"
       id="path526" /><path
       style="fill:#16cda9;stroke-width:0.0843662"
       d="m 57.963323,155.75534 c -0.226566,-0.12075 -0.529386,-0.29114 -0.672935,-0.37864 -0.143549,-0.0875 -0.317912,-0.18541 -0.387474,-0.21757 -0.06956,-0.0322 -0.644806,-0.35537 -1.278319,-0.71825 -0.633513,-0.36288 -1.172299,-0.65978 -1.197301,-0.65978 -0.025,0 -0.214122,-0.11396 -0.420265,-0.25325 -0.206143,-0.13928 -0.394768,-0.25324 -0.419166,-0.25324 -0.0244,0 -0.37286,-0.18993 -0.774361,-0.42207 -0.4015,-0.23214 -0.747802,-0.42208 -0.76956,-0.42208 -0.02176,0 -0.246423,-0.13248 -0.499257,-0.2944 l -0.459697,-0.2944 -0.0087,-1.83707 c -0.01499,-3.17759 -0.18088,-6.26884 -0.336406,-6.26884 -0.04208,0 -0.07651,-0.0926 -0.07651,-0.20579 0,-0.14538 0.04412,-0.20246 0.1503,-0.19446 0.126358,0.01 5.352953,-3.06308 6.735887,-3.9599 0.239733,-0.15546 0.5143,-0.28266 0.610149,-0.28266 0.09585,0 0.48782,0.17522 0.871047,0.38938 0.383227,0.21416 1.11415,0.62239 1.624273,0.90719 0.510122,0.28479 1.003381,0.56392 1.096131,0.62029 0.09275,0.0564 0.22555,0.13 0.295112,0.16364 0.06956,0.0336 0.392077,0.21604 0.716701,0.40532 0.324623,0.18929 0.685082,0.39148 0.801019,0.44932 0.115937,0.0578 0.324623,0.17419 0.463747,0.25856 0.139125,0.0844 0.480612,0.2769 0.75886,0.42786 0.278249,0.15096 0.548585,0.31904 0.600748,0.37351 0.06358,0.0664 0.129266,1.26783 0.199267,3.64446 0.05743,1.94998 0.120235,3.84931 0.139558,4.22074 l 0.03513,0.67531 -2.595298,1.54799 c -1.427413,0.8514 -3.016838,1.80631 -3.532053,2.12203 -0.515216,0.31572 -1.009199,0.59706 -1.097739,0.62519 -0.09563,0.0304 -0.328218,-0.038 -0.572919,-0.16839 z m 7.896836,-4.25344 c 0,-0.1625 0.01735,-0.22897 0.03856,-0.14772 0.02121,0.0812 0.02121,0.2142 0,0.29545 -0.02121,0.0813 -0.03856,0.0148 -0.03856,-0.14773 z"
       id="path524" /></g><g
     style="fill:none"
     id="g262"
     transform="matrix(0.26458333,0,0,0.26458333,4.2247239,5.4430291)"><path
       d="M 26,-1.90735e-6 V 28 H 19.52 V 16.52 H 6.8 V 28 H 0.32 V -1.90735e-6 H 6.8 V 11.04 H 19.52 V -1.90735e-6 Z"
       fill="#ffffff"
       id="path253" /></g></svg>
